{
  "deployEndpoint": "",
  "i18nPath": "locales/",
  "componentsPath": "./components/",
  "composerEndpoint": "",
  "composerHeaderKey": "",
  "composerHeaderValue": "",
  "appId": "",
  "debug": true,
  "mocks": true,
  "coreCache": true,
  "routerLog": false,
  "cordovaScript" : "cordova.js",
  "prplLevel": 1,
  "initialBundle": ["login.json"],
  "transpile": true,
  "transpileExclude": [ "cells-rxjs", "webcomponentsjs", "moment","d3", "bgadp*" ]
}
